<?xml version="1.0" standalone="no"?> 
<!DOCTYPE svg PUBLIC "-//W3C//DTD SVG 1.1//EN" "http://www.w3.org/Graphics/SVG/1.1/DTD/svg11.dtd" >
<svg xmlns="http://www.w3.org/2000/svg">
<defs>
  <font id="chkndo-icons" horiz-adv-x="600">
    <font-face font-family="chkndo-icons"
      units-per-em="500" ascent="500"
      descent="0" />
    <missing-glyph horiz-adv-x="0" />
    <glyph glyph-name="address"
      unicode="&#xE001;"
      horiz-adv-x="500" d=" M441.7 48.7C431.2 48.7 424.3 55.7 424.3 66.1V285.8L250 411.3L75.7 285.8V66.2000000000001C75.7 55.7 68.7 48.8000000000001 58.3 48.8000000000001S40.9 55.8000000000001 40.9 66.2000000000001V296.2000000000001C40.9 303.2000000000001 44.4 306.7000000000001 47.9 310.1L239.5 446.1C246.5 449.6 253.4 449.6 260.4 446.1L452.1 310.2000000000001C455.6 306.7000000000001 459.1 299.7000000000001 459.1 296.3000000000001V66.2000000000001C459.2 55.7 452.2 48.7 441.7 48.7z M302.3 48.7C291.8 48.7 284.9000000000001 55.7 284.9000000000001 66.1V153.1999999999999C284.9000000000001 174.0999999999999 271.0000000000001 188.0999999999999 250.0000000000001 188.0999999999999S215.1 174.1999999999999 215.1 153.1999999999999V66.0999999999999C215.1 55.5999999999999 208.1 48.6999999999999 197.7 48.6999999999999S180.3 55.6999999999999 180.3 66.0999999999999V153.1999999999999C180.3 191.5 211.7 222.8999999999999 250 222.8999999999999S319.7 191.5 319.7 153.1999999999999V66.0999999999999C319.7 55.7 312.7 48.7 302.3 48.7z" />
    <glyph glyph-name="arrow-left"
      unicode="&#xE002;"
      horiz-adv-x="500" d=" M343.8 46.9C339.8 46.9 335.8 48.4 332.8 51.5L145.2 239C139.1 245.1 139.1 255 145.2 261.1L332.7 448.5C338.8 454.6 348.7 454.6 354.8 448.5S360.9000000000001 432.5 354.8 426.4L178.3 250L354.8 73.5C360.9000000000001 67.4 360.9000000000001 57.5 354.8 51.4C351.7 48.4 347.7 46.9 343.8 46.9z" />
    <glyph glyph-name="arrow-right"
      unicode="&#xE003;"
      horiz-adv-x="500" d=" M156.2 453.1C160.2 453.1 164.2 451.6 167.2 448.5L354.8 261C360.9000000000001 254.9 360.9000000000001 245 354.8 238.9L167.3 51.5C161.2 45.4 151.3 45.4 145.2 51.5S139.1 67.5 145.2 73.6L321.7 250L145.2 426.5C139.1 432.6 139.1 442.5 145.2 448.6C148.3 451.6 152.3 453.1 156.2 453.1z" />
    <glyph glyph-name="bike"
      unicode="&#xE004;"
      horiz-adv-x="600" d=" M515.4 230.4L499.6 269.2C500.6 269.1 501.6 269.1 502.6 269.1C502.7 269.1 502.7 269.1 502.8 269.1H553.9L553.9 371.4L502.9 371.4L502.5 371.4C488.9 371.4 476.1 366 466.5 356.3C465.3 355.1 464.1 353.8 463 352.4C442.3 382.2 407.7 400.4 370 399.4L370.7 369.4C371.4 369.4 372 369.4 372.7 369.4C407 369.4 437.3 347.9 448.5 315.3L448.6 314.9L458.6 290.3C401.2000000000001 272.3 359.5 222.1 352.4000000000001 162.5H313.0000000000001C315.1000000000001 167.4 316.5000000000001 172.7 317.0000000000001 178.3L317.1000000000001 178.9V247.7000000000001C317.1000000000001 247.8000000000001 317.1000000000001 248.0000000000001 317.1000000000001 248.1000000000001C317.0000000000001 261.7000000000001 311.7000000000001 274.5000000000001 302.0000000000001 284.0000000000001C292.4000000000001 293.6 279.6000000000001 298.8000000000001 266.1000000000001 298.8000000000001C266.0000000000001 298.8000000000001 266.0000000000001 298.8000000000001 265.9000000000001 298.8000000000001H239.6000000000001C243.4000000000001 306.7000000000001 245.2000000000001 315.4000000000001 244.7000000000001 324.4000000000001V380C244.8000000000001 382 244.8000000000001 383.9 244.7000000000001 385.9C243.0000000000001 414.9 218.1000000000001 437.1 189.2000000000001 435.6H65.6C63.6 435.7 61.6 435.7 59.7 435.6C45.6 434.7 32.7 428.4 23.3 417.9C14 407.3 9.4 393.9 10.1 380V324.7C10 322.7 10 320.7 10.1 318.8C11.8 290.8 35.2 269.1 62.9 269.1C63.8 269.1 64.7 269.1 65.7 269.2H119.8C117.8 267.4 115.8 265.6 113.9 263.7C91.6 241.4 79 211.6999999999999 78.4 180.1L78.4 179.9L78.4 179.7C78.4 178.3 78.5 176.9 78.6 175.6C80.8 154.5 96.3 138.1 116 133.8C123.4 95.1999999999999 156.8 65.8 197.3 64.6L197.7 64.6L198.1 64.6C238.3 65.8 271.5 94.7 279.2000000000001 132.8H382.3000000000001V160.8C388.7000000000001 208.9 423.0000000000001 249.1 469.9000000000001 262.7L484.1000000000001 227.8C449.2000000000001 217.9 423.5000000000001 185.8 423.5000000000001 147.6999999999999C423.5000000000001 101.8 460.8000000000001 64.4999999999999 506.7 64.4999999999999S589.9000000000001 101.8 589.9000000000001 147.6999999999999C590 190.6 557.2 226.1 515.4 230.4zM65.2 299.1L64.3 299.1C58.2 298.7 52.3 300.8 47.7 304.8C43.1 308.9 40.4 314.5 40 320.6C39.9 321.5 39.9 322.5 40 323.4L40 323.9V380.5L40 381.4C39.6 387.5 41.7 393.4 45.7 398S55.4 405.3 61.5 405.7C62 405.7 62.4 405.7 62.9 405.7C63.4 405.7 63.8 405.7 64.3 405.7L64.8 405.7H189.7L190.6 405.7C203.2 406.5 214.1 396.8 214.8 384.2C214.9 383.3 214.9 382.4 214.8 381.4L214.8 380.9V324.3L214.8 323.4C215.2 317.3 213.1 311.4 209.1 306.8C205 302.2000000000001 199.4 299.5 193.3 299.1C192.4 299 191.5 299 190.5 299.1L190.1 299.1H65.2zM108.4 178.4C108.4 178.8 108.3 179.3 108.3 179.7C108.8 203.4 118.3 225.6 135 242.3C151.8 259.1 174.1 268.6 197.8 269H266C266 269 266 269 266.1 269C271.7000000000001 269 276.9000000000001 266.8 280.9000000000001 262.9C284.9000000000001 258.9 287.1 253.7 287.1 248.1V180.4C285.9000000000001 170.2 277.3 162.5 267 162.6H266V162.6L128.8 162.6L128 162.5C118.2 161.6 109.4 168.7 108.4 178.4zM197.7 94.4C174 95.3 154.1 111 147.1 132.6H248.3C241.3 111 221.4 95.3 197.7 94.4zM481.6 320.3C481.6 325.9 483.7 331.2000000000001 487.7 335.2000000000001C491.7 339.2000000000001 496.9 341.4 502.5000000000001 341.4H523.8000000000001L523.8000000000001 299.1H502.6000000000001C502.6000000000001 299.1 502.6000000000001 299.1 502.5000000000001 299.1C491.0000000000001 299.1 481.6000000000001 308.5 481.5000000000001 320L481.6 320.3zM506.8 94.4C477.4 94.4 453.6 118.3 453.6 147.6S477.5 200.8 506.8 200.8S560 177 560 147.6S536.1 94.4 506.8 94.4z" />
    <glyph glyph-name="category"
      unicode="&#xE005;"
      horiz-adv-x="500" d=" M383.3 450H116.7C90 450 66.7 426.7 66.7 400V100C66.7 73.3 90 50 116.7 50H383.4C410.1 50 433.4 73.3 433.4 100V400C433.3 426.7 410 450 383.3 450zM400 100C400 90 393.3 83.3 383.3 83.3H116.7C106.7 83.3 100 90 100 100V400C100 410 106.7 416.7 116.7 416.7H383.4C393.4 416.7 400.1 410 400.1 400V100z M223.3 350H356.6V316.7H223.3V350z M143.3 350H193.3V316.7H143.3V350z M223.3 283.3H356.6V250H223.3V283.3z M143.3 283.3H193.3V250H143.3V283.3z M223.3 216.7H356.6V183.4H223.3V216.7z M143.3 216.7H193.3V183.4H143.3V216.7z" />
    <glyph glyph-name="credit-card"
      unicode="&#xE006;"
      horiz-adv-x="500" d=" M403.8 388.5H96.2C71.6 388.5 50 367 50 342.3V157.7000000000001C50 133.1 71.5 111.5000000000001 96.2 111.5000000000001H403.9C428.5 111.5000000000001 450.1 133.0000000000001 450.1 157.7000000000001V342.3C450 366.9 428.5 388.5 403.8 388.5zM96.2 357.7H403.9C413.1 357.7 419.3 351.5 419.3 342.3V311.5H80.8V342.3C80.8 351.5 86.9 357.7 96.2 357.7zM403.8 142.3H96.2C87 142.3 80.8 148.5 80.8 157.7V250H419.3V157.7C419.2 148.5 413.1 142.3 403.8 142.3z" />
    <glyph glyph-name="location"
      unicode="&#xE007;"
      horiz-adv-x="500" d=" M250 50C183.3 50 103.3 231.3 103.3 303.3C103.3 383.3 170 450 250 450S396.7 383.3 396.7 303.3C396.7 231.3 316.7 50 250 50zM250 423.3C183.3 423.3 130 370 130 303.3C130 228.6 210 76.6 250 76.6S370 228.6 370 303.3C370 370 316.7 423.3 250 423.3z M250 223.3C220.7 223.3 196.7 247.3 196.7 276.6S220.7 329.9000000000001 250 329.9000000000001S303.3 305.9000000000001 303.3 276.6S279.3 223.3 250 223.3zM250 303.3C234 303.3 223.3 292.6 223.3 276.6S234 250 250 250S276.7 260.7 276.7 276.7S266 303.3 250 303.3z" />
    <glyph glyph-name="paypal"
      unicode="&#xE008;"
      horiz-adv-x="500" d=" M408.3 318.1C403.8 323.2 398.2 327.5 391.6 331C391.2000000000001 328.8 390.9000000000001 326.5 390.4000000000001 324.1C375.0000000000001 244.8 322.1 217.3 254.6 217.3H220.2C212 217.3 205 211.3 203.7 203.2L204.3 206.8L186.1 91.6L181.1 59.9C180.3 54.6 184.4 49.7 189.8 49.7H250.8C258 49.7 264.2 55.0000000000001 265.3 62.1L265.9000000000001 65.2000000000001L277.4000000000001 138.0000000000001L278.1 142.0000000000001C279.2000000000001 149.1000000000001 285.4000000000001 154.4 292.6 154.4H301.7000000000001C360.8000000000001 154.4 407.0000000000001 178.4 420.5000000000001 247.8000000000001C426.1 276.8 423.2 301 408.3 318.1z M364.7 354C369.3 383.3 364.7 403.3 348.8 421.3C331.3 441.2 299.8 449.7 259.4 449.7H142.3C134.1 449.7 127 443.7 125.7 435.5L77 126.2C76 120.1 80.8 114.6 86.9 114.6H159.2L177.4 229.8L176.8 226.2C178.1 234.3 185 240.3 193.3 240.3H227.7C295.2 240.3 348.1 267.7 363.5 347.1C364 349.5 364.4 351.7 364.7 354" />
    <glyph glyph-name="phone"
      unicode="&#xE009;"
      horiz-adv-x="500" d=" M310.9 50C271.3 50 208.5 83.7 148 188.3C118.8 233.9000000000001 101.4 286 97.4 340C93.1 369.5 104.6 399 127.6 417.8L176 444.5C195.8 455.8 221 449 232.4 429.3L259.1 381.2C270.4 361.4 263.6 336.2 243.9 324.8L219.8 310.9C212.9 307 210.4 298.1 214.4 291.2C214.4 291.2 214.4 291.1 214.5 291.1L270.4 194.5C274.3 187.6 283.2 185.1 290.1 189.1C290.1 189.1 290.2 189.1 290.2 189.2000000000001L314.3 203.1C334.1 214.4 359.3 207.6 370.7 187.9L397.4 139.5000000000001C408.5 120.7000000000001 403.2 96.5000000000001 385.1 84.1000000000001L336.7 57.4000000000001C329 52.5 320 50 310.9 50zM198 424.5C195.5 424.5 193 423.9 190.8 422.6L142.4 395.9C133.3 390.8 124.7 372.1 125.5 342.4C128.7 292.4 144.5 244 171.2 201.7C234.6 91.8 302.5 68 323.1 79.2L371.5 105.9C378.5 109.8 381 118.6 377.1 125.5C377 125.6 376.9000000000001 125.8 376.9000000000001 125.9L350.2000000000001 174.3C346.1 181.3 337.2000000000001 183.6999999999999 330.1 179.6L306 165.7C286.3 154.3 261.1 161 249.7 180.7C249.7 180.8 249.6 180.9 249.6 181L192.6 277.3C181.3 297 187.9 322.2000000000001 207.6 333.7000000000001L231.7 347.6C238.7 351.7000000000001 241.1 360.6 237 367.7000000000001L237 367.7000000000001L210.3 415.8C208.1 420.8 203.4 424.1 198 424.5z M371.9 237.2C364.5 237.2 358.5 243.2 358.5 250.6C358.5 290.7 336.1 327.5 300.5 345.8C293.9 349.2000000000001 291.4 357.3 294.7 363.9C298.1 370.5 306.2 373 312.8 369.7000000000001L312.8 369.7000000000001C357.4000000000001 346.7000000000001 385.3 300.8 385.3 250.7C385.2 243.2 379.3 237.2 371.9 237.2z M305 237.2C297.6 237.2 291.6 243.2 291.6 250.6C291.6 265.6 283.2000000000001 279.3 269.9000000000001 286.2C263.3 289.6 260.8 297.7 264.1 304.3C267.5 310.9 275.6 313.4 282.2000000000001 310.1L282.2000000000001 310.1C304.4000000000001 298.7 318.4000000000001 275.7 318.3000000000001 250.7C318.4 243.2 312.4 237.2 305 237.2z" />
    <glyph glyph-name="wallet"
      unicode="&#xE00A;"
      horiz-adv-x="500" d=" M408.6 247V330.3C408.6 340.3 401.9000000000001 347 391.9000000000001 347H358.6V433.6C358.6 443.6 351.9000000000001 450.3 341.9000000000001 450.3C338.6 450.3 338.6 450.3 335.2000000000001 450.3L51.9 350.3L51.9 350.3L51.9 350.3C51.9 350.3 48.6 350.3 48.6 347V343.7C45.3 343.7 45.3 340.4 41.9 340.4C41.9 340.4 41.9 340.4 41.9 337.1V333.8V67C41.9 57 48.6 50.3 58.6 50.3H391.9000000000001C401.9000000000001 50.3 408.6 57 408.6 67V147C435.3 147 458.6 170.3 458.6 197C458.6 223.6 435.2 247 408.6 247zM325.2 347H155.2L325.2 407V347zM375.2 80.3H75.2V313.6H375.2V247H231.9C205.2 247 181.9 223.7 181.9 197C181.9 170.3 205.2 147 231.9 147H375.2000000000001V80.3zM408.6 180.3H231.9C221.9 180.3 215.2 187 215.2 197C215.2 207 221.9 213.7 231.9 213.7H408.6C418.6 213.7 425.3 207 425.3 197C425.2 187 418.6 180.3 408.6 180.3z" />
  </font>
</defs>
</svg>
